…
head(search_on_name)
#> # A tibble: 6 x 25
#>   load_date last_file_date candidate_id party candidate_status office_full
#>   <chr>     <chr>          <chr>        <chr> <chr>            <chr>      
#> 1 2016-11-… 2016-01-11     S6CA00808    DEM   N                Senate     
#> 2 2016-11-… 2016-01-08     P60019015    DEM   N                President  
#> 3 2009-02-… 2009-01-29     S4IL00180    DEM   C                Senate     
#> 4 2009-02-… 2009-01-29     S4IL00180    DEM   C                Senate     
#> 5 2002-04-… 1999-08-04     H0IL01087    DEM   P                House      
#> # ... with 1 more row, and 19 more variables: state <chr>,
#> #   federal_funds_flag <lgl>, has_raised_funds <lgl>, office <chr>,
#> #   name <chr>, district_number <int>, incumbent_challenge <chr>,
#> #   party_full <chr>, first_file_date <chr>, active_through <int>,
#> #   incumbent_challenge_full <chr>, last_f2_date <chr>, district <chr>,
#> #   election_years <list>, cycles <list>, election_districts <list>,
#> #   principal_committees <list>, committee_id <chr>, committee_name <chr>
```

Search for a specific election.

``` r
search_on_election <- tidyfec::search_candidates(api_key = api_key, state = "VA", district = "05", office = "H", election_year = "2018", data_structure = "tidy")

head(search_on_election)
#> # A tibble: 6 x 26
#>   .        load_date      last_file_date candidate_id election_years party
#>   <list>   <chr>          <chr>          <chr>        <list>         <chr>
#> 1 <list [… 2017-10-16T21… 2017-07-24     H8VA05155    <list [1]>     DEM  
#> 2 <list [… 2017-10-24T21… 2017-07-02     H8VA05148    <list [1]>     DEM  
#> 3 <list [… 2017-05-23T07… 2017-05-16     H6VA05142    <list [2]>     REP  
#> 4 <list [… 2018-01-30T21… 2018-01-29     H8VA05163    <list [1]>     DEM  
#> 5 <list [… 2017-10-01T20… 2017-10-01     H8VA05114    <list [1]>     DEM  
#> # ... with 1 more row, and 20 more variables: candidate_status <chr>,
#> #   office_full <chr>, state <chr>, federal_funds_flag <lgl>,
#> #   has_raised_funds <lgl>, office <chr>, election_districts <list>,
#> #   name <chr>, district_number <int>, cycles <list>,
#> #   incumbent_challenge <chr>, party_full <chr>, first_file_date <chr>,
#> #   active_through <int>, incumbent_challenge_full <chr>,
#> #   last_f2_date <chr>, district <chr>, principal_committees <list>,
#> #   committee_id <chr>, committee_name <chr>
```
