Intro • tidyusafec
…
## Getting totals for: S8TX00335

## Getting totals for: S2TX00312

## Getting totals for: S8TX00319

## Getting totals for: S8TX00350

## Getting totals for: S8TX00285

texas_candidate_totals

## # A tibble: 222 x 41
##    ..x     candidate_id coverage_start_da… full_election coverage_end_date
##    <list>  <chr>        <chr>              <lgl>         <chr>            
##  1 <list … S8TX00335    2017-10-01T00:00:… TRUE          2018-03-31T00:00…
##  2 <list … S2TX00312    2013-01-01T00:00:… TRUE          2018-03-31T00:00…
##  3 <list … S2TX00312    2011-01-01T00:00:… TRUE          2012-12-31T00:00…
##  4 <list … S8TX00319    2017-04-01T00:00:… TRUE          2018-02-14T00:00…
##  5 <list … S8TX00350    2017-11-16T00:00:… TRUE          2018-03-31T00:00…
##  6 <list … S8TX00285    2017-01-01T00:00:… TRUE          2018-03-31T00:00…
##  7 <list … S8TX00335    2017-10-01T00:00:… TRUE          2018-03-31T00:00…
##  8 <list … S2TX00312    2013-01-01T00:00:… TRUE          2018-03-31T00:00…
##  9 <list … S2TX00312    2011-01-01T00:00:… TRUE          2012-12-31T00:00…
## 10 <list … S8TX00319    2017-04-01T00:00:… TRUE          2018-02-14T00:00…
## # ... with 212 more rows, and 36 more variables: last_report_year <int>,
## #   cycle <int>, last_report_type_full <chr>,
## #   last_beginning_image_number <chr>, type_of_funds <chr>, amount <dbl>,
## #   ..y <list>, load_date <chr>, last_file_date <chr>,
## #   election_years <list>, party <chr>, candidate_status <chr>,
## #   office_full <chr>, state <chr>, federal_funds_flag <lgl>,
## #   has_raised_funds <lgl>, office <chr>, election_districts <list>,
## #   name <chr>, district_number <int>, cycles <list>,
## #   incumbent_challenge <chr>, party_full <chr>, first_file_date <chr>,
…
